EESchema Schematic File Version 4
LIBS:kit_initiation-cache
EELAYER 26 0
EELAYER END
$Descr A4 11693 8268
encoding utf-8
Sheet 1 1
Title ""
Date ""
Rev ""
Comp ""
Comment1 ""
Comment2 ""
Comment3 ""
Comment4 ""
$EndDescr
$Comp
L Connector:Conn_01x02_Female J01
U 1 1 5B86F46B
P 3450 2400
F 0 "J01" H 3344 2585 50  0000 C CNN
F 1 "Conn_01x02_Female" H 3344 2494 50  0000 C CNN
F 2 "Connector_PinSocket_2.54mm:PinSocket_1x02_P2.54mm_Vertical" H 3450 2400 50  0001 C CNN
F 3 "~" H 3450 2400 50  0001 C CNN
	1    3450 2400
	-1   0    0    -1  
$EndComp
$Comp
L power:+9V #PWR0101
U 1 1 5B86F55C
P 4000 2350
F 0 "#PWR0101" H 4000 2200 50  0001 C CNN
F 1 "+9V" H 4015 2523 50  0000 C CNN
F 2 "" H 4000 2350 50  0001 C CNN
F 3 "" H 4000 2350 50  0001 C CNN
	1    4000 2350
	1    0    0    -1  
$EndComp
$Comp
L power:GND #PWR0102
U 1 1 5B86F5F1
P 4000 2550
F 0 "#PWR0102" H 4000 2300 50  0001 C CNN
F 1 "GND" H 4005 2377 50  0000 C CNN
F 2 "" H 4000 2550 50  0001 C CNN
F 3 "" H 4000 2550 50  0001 C CNN
	1    4000 2550
	1    0    0    -1  
$EndComp
Wire Wire Line
	3650 2500 4000 2500
Wire Wire Line
	4000 2500 4000 2550
Wire Wire Line
	3650 2400 4000 2400
Wire Wire Line
	4000 2400 4000 2350
$Comp
L power:+9V #PWR0103
U 1 1 5B86F627
P 5050 2300
F 0 "#PWR0103" H 5050 2150 50  0001 C CNN
F 1 "+9V" H 5065 2473 50  0000 C CNN
F 2 "" H 5050 2300 50  0001 C CNN
F 3 "" H 5050 2300 50  0001 C CNN
	1    5050 2300
	1    0    0    -1  
$EndComp
$Comp
L Device:R R11
U 1 1 5B86F65A
P 4450 3100
F 0 "R11" H 4520 3146 50  0000 L CNN
F 1 "1k" H 4520 3055 50  0000 L CNN
F 2 "Resistor_THT:R_Axial_DIN0207_L6.3mm_D2.5mm_P10.16mm_Horizontal" V 4380 3100 50  0001 C CNN
F 3 "~" H 4450 3100 50  0001 C CNN
	1    4450 3100
	1    0    0    -1  
$EndComp
$Comp
L Device:R R12
U 1 1 5B86F690
P 4850 3100
F 0 "R12" H 4920 3146 50  0000 L CNN
F 1 "220k" H 4920 3055 50  0000 L CNN
F 2 "Resistor_THT:R_Axial_DIN0207_L6.3mm_D2.5mm_P10.16mm_Horizontal" V 4780 3100 50  0001 C CNN
F 3 "~" H 4850 3100 50  0001 C CNN
	1    4850 3100
	1    0    0    -1  
$EndComp
$Comp
L Device:R R21
U 1 1 5B86F6B2
P 5250 3100
F 0 "R21" H 5320 3146 50  0000 L CNN
F 1 "220k" H 5320 3055 50  0000 L CNN
F 2 "Resistor_THT:R_Axial_DIN0207_L6.3mm_D2.5mm_P10.16mm_Horizontal" V 5180 3100 50  0001 C CNN
F 3 "~" H 5250 3100 50  0001 C CNN
	1    5250 3100
	1    0    0    -1  
$EndComp
$Comp
L Device:R R22
U 1 1 5B86F6DA
P 5650 3100
F 0 "R22" H 5720 3146 50  0000 L CNN
F 1 "1k" H 5720 3055 50  0000 L CNN
F 2 "Resistor_THT:R_Axial_DIN0207_L6.3mm_D2.5mm_P10.16mm_Horizontal" V 5580 3100 50  0001 C CNN
F 3 "~" H 5650 3100 50  0001 C CNN
	1    5650 3100
	1    0    0    -1  
$EndComp
$Comp
L Device:CP C11
U 1 1 5B86F7B9
P 4650 3600
F 0 "C11" V 4398 3600 50  0000 C CNN
F 1 "2u2" V 4489 3600 50  0000 C CNN
F 2 "Capacitor_THT:CP_Radial_D5.0mm_P2.00mm" H 4688 3450 50  0001 C CNN
F 3 "~" H 4650 3600 50  0001 C CNN
	1    4650 3600
	0    -1   -1   0   
$EndComp
$Comp
L Device:CP C21
U 1 1 5B86F7EE
P 5450 3600
F 0 "C21" V 5198 3600 50  0000 C CNN
F 1 "2u2" V 5289 3600 50  0000 C CNN
F 2 "Capacitor_THT:CP_Radial_D5.0mm_P2.00mm" H 5488 3450 50  0001 C CNN
F 3 "~" H 5450 3600 50  0001 C CNN
	1    5450 3600
	0    1    1    0   
$EndComp
$Comp
L Transistor_BJT:2N3904 Q21
U 1 1 5B86F99B
P 5550 3950
F 0 "Q21" H 5741 3996 50  0000 L CNN
F 1 "2N3904" H 5741 3905 50  0000 L CNN
F 2 "Package_TO_SOT_THT:TO-92_Inline" H 5750 3875 50  0001 L CIN
F 3 "https://www.fairchildsemi.com/datasheets/2N/2N3904.pdf" H 5550 3950 50  0001 L CNN
	1    5550 3950
	1    0    0    -1  
$EndComp
$Comp
L Transistor_BJT:2N3904 Q11
U 1 1 5B86FA11
P 4550 4050
F 0 "Q11" H 4741 4096 50  0000 L CNN
F 1 "2N3904" H 4741 4005 50  0000 L CNN
F 2 "Package_TO_SOT_THT:TO-92_Inline" H 4750 3975 50  0001 L CIN
F 3 "https://www.fairchildsemi.com/datasheets/2N/2N3904.pdf" H 4550 4050 50  0001 L CNN
	1    4550 4050
	-1   0    0    -1  
$EndComp
$Comp
L Device:LED D11
U 1 1 5B86FBED
P 4450 2650
F 0 "D11" V 4488 2532 50  0000 R CNN
F 1 "LED" V 4397 2532 50  0000 R CNN
F 2 "LED_THT:LED_D5.0mm" H 4450 2650 50  0001 C CNN
F 3 "~" H 4450 2650 50  0001 C CNN
	1    4450 2650
	0    -1   -1   0   
$EndComp
$Comp
L Device:LED D21
U 1 1 5B86FCAE
P 5650 2650
F 0 "D21" V 5688 2532 50  0000 R CNN
F 1 "LED" V 5597 2532 50  0000 R CNN
F 2 "LED_THT:LED_D5.0mm" H 5650 2650 50  0001 C CNN
F 3 "~" H 5650 2650 50  0001 C CNN
	1    5650 2650
	0    -1   -1   0   
$EndComp
Wire Wire Line
	4450 2500 4450 2400
Wire Wire Line
	4450 2400 4850 2400
Wire Wire Line
	5650 2400 5650 2500
Wire Wire Line
	4450 2800 4450 2950
Wire Wire Line
	4850 2400 4850 2950
Wire Wire Line
	5250 2950 5250 2400
Wire Wire Line
	5250 2400 5650 2400
Wire Wire Line
	5650 2950 5650 2800
Wire Wire Line
	5650 3250 5650 3600
Wire Wire Line
	5600 3600 5650 3600
Connection ~ 5650 3600
Wire Wire Line
	5650 3600 5650 3750
Wire Wire Line
	4500 3600 4450 3600
Wire Wire Line
	4450 3600 4450 3850
Wire Wire Line
	4450 3250 4450 3600
Connection ~ 4450 3600
Wire Wire Line
	4850 3250 4850 3600
Wire Wire Line
	4850 3600 4800 3600
Wire Wire Line
	5250 3250 5250 3600
Wire Wire Line
	5250 3600 5300 3600
Wire Wire Line
	4850 3600 5050 3600
Wire Wire Line
	5050 3600 5050 3950
Wire Wire Line
	5050 3950 5350 3950
Connection ~ 4850 3600
Connection ~ 5250 3600
Wire Wire Line
	4750 4050 5250 4050
Wire Wire Line
	5250 3600 5250 4050
$Comp
L power:GND #PWR0104
U 1 1 5B8724DD
P 4450 4300
F 0 "#PWR0104" H 4450 4050 50  0001 C CNN
F 1 "GND" H 4455 4127 50  0000 C CNN
F 2 "" H 4450 4300 50  0001 C CNN
F 3 "" H 4450 4300 50  0001 C CNN
	1    4450 4300
	1    0    0    -1  
$EndComp
$Comp
L power:GND #PWR0105
U 1 1 5B872505
P 5650 4300
F 0 "#PWR0105" H 5650 4050 50  0001 C CNN
F 1 "GND" H 5655 4127 50  0000 C CNN
F 2 "" H 5650 4300 50  0001 C CNN
F 3 "" H 5650 4300 50  0001 C CNN
	1    5650 4300
	1    0    0    -1  
$EndComp
Wire Wire Line
	5650 4300 5650 4150
Wire Wire Line
	4450 4300 4450 4250
Wire Wire Line
	4850 2400 5050 2400
Connection ~ 4850 2400
Connection ~ 5250 2400
Wire Wire Line
	5050 2400 5050 2300
Connection ~ 5050 2400
Wire Wire Line
	5050 2400 5250 2400
$EndSCHEMATC
