G04 #@! TF.GenerationSoftware,KiCad,Pcbnew,(5.0.0-rc2-dev-603-g5a05135)*
G04 #@! TF.CreationDate,2018-09-04T21:54:04+02:00*
G04 #@! TF.ProjectId,kit_initiation,6B69745F696E6974696174696F6E2E6B,rev?*
G04 #@! TF.SameCoordinates,Original*
G04 #@! TF.FileFunction,Copper,L1,Top,Signal*
G04 #@! TF.FilePolarity,Positive*
%FSLAX46Y46*%
G04 Gerber Fmt 4.6, Leading zero omitted, Abs format (unit mm)*
G04 Created by KiCad (PCBNEW (5.0.0-rc2-dev-603-g5a05135)) date Tuesday, 04 September 2018 21:54:04*
%MOMM*%
%LPD*%
G01*
G04 APERTURE LIST*
%ADD10R,1.600000X1.600000*%
%ADD11C,1.600000*%
%ADD12R,1.800000X1.800000*%
%ADD13C,1.800000*%
%ADD14R,1.700000X1.700000*%
%ADD15O,1.700000X1.700000*%
%ADD16R,1.500000X1.050000*%
%ADD17O,1.500000X1.050000*%
%ADD18O,1.600000X1.600000*%
%ADD19C,0.800000*%
%ADD20C,0.400000*%
G04 APERTURE END LIST*
D10*
X125000000Y-110000000D03*
D11*
X127000000Y-110000000D03*
X133000000Y-110000000D03*
D10*
X135000000Y-110000000D03*
D12*
X119000000Y-91000000D03*
D13*
X119000000Y-88460000D03*
X141000000Y-88460000D03*
D12*
X141000000Y-91000000D03*
D14*
X130000000Y-90000000D03*
D15*
X130000000Y-87460000D03*
D16*
X119000000Y-112000000D03*
D17*
X119000000Y-109460000D03*
X119000000Y-110730000D03*
X141000000Y-110730000D03*
X141000000Y-109460000D03*
D16*
X141000000Y-112000000D03*
D11*
X119000000Y-95000000D03*
D18*
X119000000Y-105160000D03*
X127000000Y-105160000D03*
D11*
X127000000Y-95000000D03*
X133000000Y-95000000D03*
D18*
X133000000Y-105160000D03*
X141000000Y-105160000D03*
D11*
X141000000Y-95000000D03*
D19*
X129000000Y-110000000D03*
X131000000Y-112000000D03*
D20*
X129000000Y-110000000D02*
X130000000Y-111000000D01*
X131000000Y-112000000D02*
X130000000Y-111000000D01*
M02*
