EESchema Schematic File Version 4
EELAYER 26 0
EELAYER END
$Descr A4 11693 8268
encoding utf-8
Sheet 1 1
Title ""
Date ""
Rev ""
Comp ""
Comment1 ""
Comment2 ""
Comment3 ""
Comment4 ""
$EndDescr
$Comp
L device:D D2
U 1 1 5B85EB85
P 2650 2200
F 0 "D2" H 2650 1984 50  0000 C CNN
F 1 "D" H 2650 2075 50  0000 C CNN
F 2 "Diodes_SMD:D_MicroMELF_Hadsoldering" H 2650 2200 50  0001 C CNN
F 3 "" H 2650 2200 50  0001 C CNN
	1    2650 2200
	-1   0    0    1   
$EndComp
$Comp
L device:D D1
U 1 1 5B85EBC4
P 2400 2350
F 0 "D1" H 2400 2566 50  0000 C CNN
F 1 "D" H 2400 2475 50  0000 C CNN
F 2 "Diodes_SMD:D_MicroMELF_Hadsoldering" H 2400 2350 50  0001 C CNN
F 3 "" H 2400 2350 50  0001 C CNN
	1    2400 2350
	0    1    1    0   
$EndComp
$Comp
L device:C C1
U 1 1 5B85EE0F
P 2300 2050
F 0 "C1" H 2415 2096 50  0000 L CNN
F 1 "C" H 2415 2005 50  0000 L CNN
F 2 "Capacitors_SMD:C_0603_HandSoldering" H 2338 1900 50  0001 C CNN
F 3 "" H 2300 2050 50  0001 C CNN
	1    2300 2050
	1    0    0    -1  
$EndComp
$Comp
L device:C C2
U 1 1 5B85EE5F
P 3600 2350
F 0 "C2" H 3715 2396 50  0000 L CNN
F 1 "C" H 3715 2305 50  0000 L CNN
F 2 "Capacitors_SMD:C_0603_HandSoldering" H 3638 2200 50  0001 C CNN
F 3 "" H 3600 2350 50  0001 C CNN
	1    3600 2350
	1    0    0    -1  
$EndComp
Wire Wire Line
	2300 2200 2400 2200
Wire Wire Line
	2400 2200 2500 2200
Connection ~ 2400 2200
$Comp
L power:GND #PWR0101
U 1 1 5B85F1BF
P 2400 2600
F 0 "#PWR0101" H 2400 2350 50  0001 C CNN
F 1 "GND" H 2405 2427 50  0000 C CNN
F 2 "" H 2400 2600 50  0001 C CNN
F 3 "" H 2400 2600 50  0001 C CNN
	1    2400 2600
	1    0    0    -1  
$EndComp
Wire Wire Line
	2400 2500 2400 2600
Connection ~ 2400 2500
$Comp
L device:LED D3
U 1 1 5B85F36C
P 4200 2350
F 0 "D3" V 4238 2233 50  0000 R CNN
F 1 "LED" V 4147 2233 50  0000 R CNN
F 2 "LEDs:LED_0603_HandSoldering" H 4200 2350 50  0001 C CNN
F 3 "" H 4200 2350 50  0001 C CNN
	1    4200 2350
	0    -1   -1   0   
$EndComp
$Comp
L conn:Conn_01x02 J1
U 1 1 5B9587BB
P 2500 1350
F 0 "J1" H 2580 1342 50  0000 L CNN
F 1 "Conn_01x02" H 2580 1251 50  0000 L CNN
F 2 "Pin_Headers:Pin_Header_Straight_1x02_Pitch2.54mm" H 2500 1350 50  0001 C CNN
F 3 "~" H 2500 1350 50  0001 C CNN
	1    2500 1350
	1    0    0    -1  
$EndComp
Wire Wire Line
	2300 1450 2300 1700
Wire Wire Line
	2300 1350 2150 1350
Wire Wire Line
	2150 1350 2150 2500
Wire Wire Line
	2150 2500 2400 2500
$Comp
L device:C C5
U 1 1 5B958AAF
P 4450 1850
F 0 "C5" H 4565 1896 50  0000 L CNN
F 1 "C" H 4565 1805 50  0000 L CNN
F 2 "Capacitors_ThroughHole:C_Disc_D3.0mm_W2.0mm_P2.50mm" H 4488 1700 50  0001 C CNN
F 3 "" H 4450 1850 50  0001 C CNN
	1    4450 1850
	1    0    0    -1  
$EndComp
$Comp
L device:D D9
U 1 1 5B958CB2
P 4750 2050
F 0 "D9" H 4750 1834 50  0000 C CNN
F 1 "D" H 4750 1925 50  0000 C CNN
F 2 "Diodes_ThroughHole:D_A-405_P7.62mm_Horizontal" H 4750 2050 50  0001 C CNN
F 3 "" H 4750 2050 50  0001 C CNN
	1    4750 2050
	-1   0    0    1   
$EndComp
$Comp
L device:D D11
U 1 1 5B958E57
P 5550 2050
F 0 "D11" H 5550 1834 50  0000 C CNN
F 1 "D" H 5550 1925 50  0000 C CNN
F 2 "Diodes_ThroughHole:D_A-405_P7.62mm_Horizontal" H 5550 2050 50  0001 C CNN
F 3 "" H 5550 2050 50  0001 C CNN
	1    5550 2050
	-1   0    0    1   
$EndComp
$Comp
L device:D D8
U 1 1 5B958ECD
P 4500 2200
F 0 "D8" V 4454 2279 50  0000 L CNN
F 1 "D" V 4545 2279 50  0000 L CNN
F 2 "Diodes_ThroughHole:D_A-405_P7.62mm_Horizontal" H 4500 2200 50  0001 C CNN
F 3 "" H 4500 2200 50  0001 C CNN
	1    4500 2200
	0    1    1    0   
$EndComp
$Comp
L device:D D10
U 1 1 5B958F5F
P 5300 2250
F 0 "D10" V 5254 2329 50  0000 L CNN
F 1 "D" V 5345 2329 50  0000 L CNN
F 2 "Diodes_ThroughHole:D_A-405_P7.62mm_Horizontal" H 5300 2250 50  0001 C CNN
F 3 "" H 5300 2250 50  0001 C CNN
	1    5300 2250
	0    1    1    0   
$EndComp
$Comp
L device:D D13
U 1 1 5B959127
P 6300 2050
F 0 "D13" H 6300 1834 50  0000 C CNN
F 1 "D" H 6300 1925 50  0000 C CNN
F 2 "Diodes_ThroughHole:D_A-405_P7.62mm_Horizontal" H 6300 2050 50  0001 C CNN
F 3 "" H 6300 2050 50  0001 C CNN
	1    6300 2050
	-1   0    0    1   
$EndComp
$Comp
L device:D D12
U 1 1 5B9591B0
P 6050 2250
F 0 "D12" V 6004 2329 50  0000 L CNN
F 1 "D" V 6095 2329 50  0000 L CNN
F 2 "Diodes_ThroughHole:D_A-405_P7.62mm_Horizontal" H 6050 2250 50  0001 C CNN
F 3 "" H 6050 2250 50  0001 C CNN
	1    6050 2250
	0    1    1    0   
$EndComp
$Comp
L device:C C6
U 1 1 5B95925B
P 5100 2250
F 0 "C6" H 5215 2296 50  0000 L CNN
F 1 "C" H 5215 2205 50  0000 L CNN
F 2 "Capacitors_ThroughHole:C_Disc_D3.0mm_W2.0mm_P2.50mm" H 5138 2100 50  0001 C CNN
F 3 "" H 5100 2250 50  0001 C CNN
	1    5100 2250
	1    0    0    -1  
$EndComp
$Comp
L device:C C7
U 1 1 5B9592EA
P 5800 2250
F 0 "C7" H 5915 2296 50  0000 L CNN
F 1 "C" H 5915 2205 50  0000 L CNN
F 2 "Capacitors_ThroughHole:C_Disc_D3.0mm_W2.0mm_P2.50mm" H 5838 2100 50  0001 C CNN
F 3 "" H 5800 2250 50  0001 C CNN
	1    5800 2250
	1    0    0    -1  
$EndComp
$Comp
L device:LED D14
U 1 1 5B95959B
P 6700 2250
F 0 "D14" V 6738 2133 50  0000 R CNN
F 1 "LED" V 6647 2133 50  0000 R CNN
F 2 "LEDs:LED_D3.0mm" H 6700 2250 50  0001 C CNN
F 3 "" H 6700 2250 50  0001 C CNN
	1    6700 2250
	0    -1   -1   0   
$EndComp
Wire Wire Line
	4400 1450 4400 1700
Wire Wire Line
	4400 1700 4450 1700
Wire Wire Line
	4450 2000 4450 2050
Wire Wire Line
	4450 2050 4500 2050
Wire Wire Line
	4500 2050 4600 2050
Connection ~ 4500 2050
Wire Wire Line
	4900 2050 5100 2050
Wire Wire Line
	5300 2100 5300 2050
Connection ~ 5300 2050
Wire Wire Line
	5300 2050 5400 2050
Wire Wire Line
	5100 2100 5100 2050
Connection ~ 5100 2050
Wire Wire Line
	5100 2050 5300 2050
Wire Wire Line
	5700 2050 5800 2050
Wire Wire Line
	6050 2100 6050 2050
Connection ~ 6050 2050
Wire Wire Line
	6050 2050 6150 2050
Wire Wire Line
	5800 2100 5800 2050
Connection ~ 5800 2050
Wire Wire Line
	5800 2050 6050 2050
Wire Wire Line
	4500 2350 4500 2400
Wire Wire Line
	4500 2400 4900 2400
Wire Wire Line
	5100 2400 5300 2400
Connection ~ 5100 2400
Wire Wire Line
	5300 2400 5800 2400
Connection ~ 5300 2400
Wire Wire Line
	5800 2400 6050 2400
Connection ~ 5800 2400
Connection ~ 6050 2400
Wire Wire Line
	6450 2100 6450 2050
Wire Wire Line
	6450 2100 6500 2100
Wire Wire Line
	6050 2400 6500 2400
$Comp
L device:C C8
U 1 1 5B95BE81
P 6500 2250
F 0 "C8" H 6615 2296 50  0000 L CNN
F 1 "C" H 6615 2205 50  0000 L CNN
F 2 "Capacitors_ThroughHole:C_Disc_D3.0mm_W2.0mm_P2.50mm" H 6538 2100 50  0001 C CNN
F 3 "" H 6500 2250 50  0001 C CNN
	1    6500 2250
	1    0    0    -1  
$EndComp
Connection ~ 6500 2100
Wire Wire Line
	6500 2100 6700 2100
Connection ~ 6500 2400
Wire Wire Line
	6500 2400 6700 2400
Wire Wire Line
	2400 2500 2850 2500
$Comp
L device:D D7
U 1 1 5B95CB3E
P 3850 2200
F 0 "D7" H 3850 1984 50  0000 C CNN
F 1 "D" H 3850 2075 50  0000 C CNN
F 2 "Diodes_SMD:D_MicroMELF_Hadsoldering" H 3850 2200 50  0001 C CNN
F 3 "" H 3850 2200 50  0001 C CNN
	1    3850 2200
	-1   0    0    1   
$EndComp
$Comp
L device:D D5
U 1 1 5B95CB8F
P 3200 2200
F 0 "D5" H 3200 1984 50  0000 C CNN
F 1 "D" H 3200 2075 50  0000 C CNN
F 2 "Diodes_SMD:D_MicroMELF_Hadsoldering" H 3200 2200 50  0001 C CNN
F 3 "" H 3200 2200 50  0001 C CNN
	1    3200 2200
	-1   0    0    1   
$EndComp
$Comp
L device:D D4
U 1 1 5B95CBE3
P 2850 2350
F 0 "D4" H 2850 2566 50  0000 C CNN
F 1 "D" H 2850 2475 50  0000 C CNN
F 2 "Diodes_SMD:D_MicroMELF_Hadsoldering" H 2850 2350 50  0001 C CNN
F 3 "" H 2850 2350 50  0001 C CNN
	1    2850 2350
	0    1    1    0   
$EndComp
Connection ~ 2850 2500
Wire Wire Line
	2850 2500 3000 2500
$Comp
L device:D D6
U 1 1 5B95CC39
P 3350 2350
F 0 "D6" H 3350 2566 50  0000 C CNN
F 1 "D" H 3350 2475 50  0000 C CNN
F 2 "Diodes_SMD:D_MicroMELF_Hadsoldering" H 3350 2350 50  0001 C CNN
F 3 "" H 3350 2350 50  0001 C CNN
	1    3350 2350
	0    1    1    0   
$EndComp
$Comp
L device:C C3
U 1 1 5B95CCD2
P 3000 2350
F 0 "C3" H 3115 2396 50  0000 L CNN
F 1 "C" H 3115 2305 50  0000 L CNN
F 2 "Capacitors_SMD:C_0603_HandSoldering" H 3038 2200 50  0001 C CNN
F 3 "" H 3000 2350 50  0001 C CNN
	1    3000 2350
	1    0    0    -1  
$EndComp
Connection ~ 3000 2500
$Comp
L device:C C4
U 1 1 5B95D022
P 4050 2350
F 0 "C4" H 4165 2396 50  0000 L CNN
F 1 "C" H 4165 2305 50  0000 L CNN
F 2 "Capacitors_SMD:C_0603_HandSoldering" H 4088 2200 50  0001 C CNN
F 3 "" H 4050 2350 50  0001 C CNN
	1    4050 2350
	1    0    0    -1  
$EndComp
Wire Wire Line
	3000 2500 3350 2500
Wire Wire Line
	3600 2500 3350 2500
Connection ~ 3350 2500
Wire Wire Line
	3350 2200 3600 2200
Connection ~ 3350 2200
Wire Wire Line
	3600 2200 3700 2200
Connection ~ 3600 2200
Wire Wire Line
	4000 2200 4050 2200
Wire Wire Line
	4050 2200 4200 2200
Connection ~ 4050 2200
Wire Wire Line
	4200 2500 4050 2500
Wire Wire Line
	3600 2500 4050 2500
Connection ~ 3600 2500
Connection ~ 4050 2500
Wire Wire Line
	2800 2200 2850 2200
Wire Wire Line
	2850 2200 3000 2200
Connection ~ 2850 2200
Wire Wire Line
	3050 2200 3000 2200
Connection ~ 3000 2200
$Comp
L power:GND #PWR01
U 1 1 5B96228A
P 4900 2400
F 0 "#PWR01" H 4900 2150 50  0001 C CNN
F 1 "GND" H 4905 2227 50  0000 C CNN
F 2 "" H 4900 2400 50  0001 C CNN
F 3 "" H 4900 2400 50  0001 C CNN
	1    4900 2400
	1    0    0    -1  
$EndComp
Connection ~ 4900 2400
Wire Wire Line
	4900 2400 5100 2400
Wire Wire Line
	4400 1450 3300 1450
Wire Wire Line
	3300 1450 3300 1700
Wire Wire Line
	3300 1700 2300 1700
Connection ~ 2300 1700
Wire Wire Line
	2300 1700 2300 1900
$EndSCHEMATC
