(export (version D)
  (design
    (source "/Volumes/2TO/Radioamateur/ADRI38/Promotion/rf field detector/rf field detector.sch")
    (date "Sunday, 09 September 2018 23:45:54")
    (tool "Eeschema (5.0.0-rc2-dev-603-g5a05135)")
    (sheet (number 1) (name /) (tstamps /)
      (title_block
        (title)
        (company)
        (rev)
        (date)
        (source "rf field detector.sch")
        (comment (number 1) (value ""))
        (comment (number 2) (value ""))
        (comment (number 3) (value ""))
        (comment (number 4) (value "")))))
  (components
    (comp (ref D2)
      (value D)
      (footprint Diodes_SMD:D_MicroMELF_Hadsoldering)
      (libsource (lib device) (part D))
      (sheetpath (names /) (tstamps /))
      (tstamp 5B85EB85))
    (comp (ref D1)
      (value D)
      (footprint Diodes_SMD:D_MicroMELF_Hadsoldering)
      (libsource (lib device) (part D))
      (sheetpath (names /) (tstamps /))
      (tstamp 5B85EBC4))
    (comp (ref C1)
      (value C)
      (footprint Capacitors_SMD:C_0603_HandSoldering)
      (libsource (lib device) (part C))
      (sheetpath (names /) (tstamps /))
      (tstamp 5B85EE0F))
    (comp (ref C2)
      (value C)
      (footprint Capacitors_SMD:C_0603_HandSoldering)
      (libsource (lib device) (part C))
      (sheetpath (names /) (tstamps /))
      (tstamp 5B85EE5F))
    (comp (ref D3)
      (value LED)
      (footprint LEDs:LED_0603_HandSoldering)
      (libsource (lib device) (part LED))
      (sheetpath (names /) (tstamps /))
      (tstamp 5B85F36C))
    (comp (ref J1)
      (value Conn_01x02)
      (footprint Pin_Headers:Pin_Header_Straight_1x02_Pitch2.54mm)
      (libsource (lib conn) (part Conn_01x02))
      (sheetpath (names /) (tstamps /))
      (tstamp 5B9587BB))
    (comp (ref C5)
      (value C)
      (footprint Capacitors_ThroughHole:C_Disc_D3.0mm_W2.0mm_P2.50mm)
      (libsource (lib device) (part C))
      (sheetpath (names /) (tstamps /))
      (tstamp 5B958AAF))
    (comp (ref D9)
      (value D)
      (footprint Diodes_ThroughHole:D_A-405_P7.62mm_Horizontal)
      (libsource (lib device) (part D))
      (sheetpath (names /) (tstamps /))
      (tstamp 5B958CB2))
    (comp (ref D11)
      (value D)
      (footprint Diodes_ThroughHole:D_A-405_P7.62mm_Horizontal)
      (libsource (lib device) (part D))
      (sheetpath (names /) (tstamps /))
      (tstamp 5B958E57))
    (comp (ref D8)
      (value D)
      (footprint Diodes_ThroughHole:D_A-405_P7.62mm_Horizontal)
      (libsource (lib device) (part D))
      (sheetpath (names /) (tstamps /))
      (tstamp 5B958ECD))
    (comp (ref D10)
      (value D)
      (footprint Diodes_ThroughHole:D_A-405_P7.62mm_Horizontal)
      (libsource (lib device) (part D))
      (sheetpath (names /) (tstamps /))
      (tstamp 5B958F5F))
    (comp (ref D13)
      (value D)
      (footprint Diodes_ThroughHole:D_A-405_P7.62mm_Horizontal)
      (libsource (lib device) (part D))
      (sheetpath (names /) (tstamps /))
      (tstamp 5B959127))
    (comp (ref D12)
      (value D)
      (footprint Diodes_ThroughHole:D_A-405_P7.62mm_Horizontal)
      (libsource (lib device) (part D))
      (sheetpath (names /) (tstamps /))
      (tstamp 5B9591B0))
    (comp (ref C6)
      (value C)
      (footprint Capacitors_ThroughHole:C_Disc_D3.0mm_W2.0mm_P2.50mm)
      (libsource (lib device) (part C))
      (sheetpath (names /) (tstamps /))
      (tstamp 5B95925B))
    (comp (ref C7)
      (value C)
      (footprint Capacitors_ThroughHole:C_Disc_D3.0mm_W2.0mm_P2.50mm)
      (libsource (lib device) (part C))
      (sheetpath (names /) (tstamps /))
      (tstamp 5B9592EA))
    (comp (ref D14)
      (value LED)
      (footprint LEDs:LED_D3.0mm)
      (libsource (lib device) (part LED))
      (sheetpath (names /) (tstamps /))
      (tstamp 5B95959B))
    (comp (ref C8)
      (value C)
      (footprint Capacitors_ThroughHole:C_Disc_D3.0mm_W2.0mm_P2.50mm)
      (libsource (lib device) (part C))
      (sheetpath (names /) (tstamps /))
      (tstamp 5B95BE81))
    (comp (ref D7)
      (value D)
      (footprint Diodes_SMD:D_MicroMELF_Hadsoldering)
      (libsource (lib device) (part D))
      (sheetpath (names /) (tstamps /))
      (tstamp 5B95CB3E))
    (comp (ref D5)
      (value D)
      (footprint Diodes_SMD:D_MicroMELF_Hadsoldering)
      (libsource (lib device) (part D))
      (sheetpath (names /) (tstamps /))
      (tstamp 5B95CB8F))
    (comp (ref D4)
      (value D)
      (footprint Diodes_SMD:D_MicroMELF_Hadsoldering)
      (libsource (lib device) (part D))
      (sheetpath (names /) (tstamps /))
      (tstamp 5B95CBE3))
    (comp (ref D6)
      (value D)
      (footprint Diodes_SMD:D_MicroMELF_Hadsoldering)
      (libsource (lib device) (part D))
      (sheetpath (names /) (tstamps /))
      (tstamp 5B95CC39))
    (comp (ref C3)
      (value C)
      (footprint Capacitors_SMD:C_0603_HandSoldering)
      (libsource (lib device) (part C))
      (sheetpath (names /) (tstamps /))
      (tstamp 5B95CCD2))
    (comp (ref C4)
      (value C)
      (footprint Capacitors_SMD:C_0603_HandSoldering)
      (libsource (lib device) (part C))
      (sheetpath (names /) (tstamps /))
      (tstamp 5B95D022)))
  (libparts
    (libpart (lib conn) (part Conn_01x02)
      (description "Generic connector, single row, 01x02")
      (docs ~)
      (footprints
        (fp Connector*:*_??x*mm*)
        (fp Connector*:*1x??x*mm*)
        (fp Pin?Header?Straight?1X*)
        (fp Pin?Header?Angled?1X*)
        (fp Socket?Strip?Straight?1X*)
        (fp Socket?Strip?Angled?1X*))
      (fields
        (field (name Reference) J)
        (field (name Value) Conn_01x02))
      (pins
        (pin (num 1) (name Pin_1) (type passive))
        (pin (num 2) (name Pin_2) (type passive))))
    (libpart (lib device) (part C)
      (description "Unpolarized capacitor")
      (footprints
        (fp C_*))
      (fields
        (field (name Reference) C)
        (field (name Value) C))
      (pins
        (pin (num 1) (name ~) (type passive))
        (pin (num 2) (name ~) (type passive))))
    (libpart (lib device) (part D)
      (description Diode)
      (footprints
        (fp TO-???*)
        (fp *SingleDiode)
        (fp *_Diode_*)
        (fp *SingleDiode*)
        (fp D_*))
      (fields
        (field (name Reference) D)
        (field (name Value) D))
      (pins
        (pin (num 1) (name K) (type passive))
        (pin (num 2) (name A) (type passive))))
    (libpart (lib device) (part LED)
      (description "LED generic")
      (footprints
        (fp LED*))
      (fields
        (field (name Reference) D)
        (field (name Value) LED))
      (pins
        (pin (num 1) (name K) (type passive))
        (pin (num 2) (name A) (type passive)))))
  (libraries
    (library (logical conn)
      (uri "/Library/Application Support/kicad/library/conn.lib"))
    (library (logical device)
      (uri "/Library/Application Support/kicad/library/device.lib")))
  (nets
    (net (code 1) (name "Net-(C1-Pad2)")
      (node (ref D2) (pin 2))
      (node (ref D1) (pin 1))
      (node (ref C1) (pin 2)))
    (net (code 2) (name "Net-(C5-Pad2)")
      (node (ref D8) (pin 1))
      (node (ref D9) (pin 2))
      (node (ref C5) (pin 2)))
    (net (code 3) (name "Net-(C6-Pad1)")
      (node (ref C6) (pin 1))
      (node (ref D10) (pin 1))
      (node (ref D11) (pin 2))
      (node (ref D9) (pin 1)))
    (net (code 4) (name "Net-(C8-Pad1)")
      (node (ref D14) (pin 2))
      (node (ref D13) (pin 1))
      (node (ref C8) (pin 1)))
    (net (code 5) (name "Net-(C7-Pad1)")
      (node (ref D11) (pin 1))
      (node (ref D13) (pin 2))
      (node (ref D12) (pin 1))
      (node (ref C7) (pin 1)))
    (net (code 6) (name "Net-(C1-Pad1)")
      (node (ref C1) (pin 1))
      (node (ref C5) (pin 1))
      (node (ref J1) (pin 2)))
    (net (code 7) (name "Net-(C2-Pad1)")
      (node (ref D5) (pin 1))
      (node (ref D6) (pin 1))
      (node (ref D7) (pin 2))
      (node (ref C2) (pin 1)))
    (net (code 8) (name "Net-(C3-Pad1)")
      (node (ref D2) (pin 1))
      (node (ref C3) (pin 1))
      (node (ref D4) (pin 1))
      (node (ref D5) (pin 2)))
    (net (code 9) (name "Net-(C4-Pad1)")
      (node (ref D3) (pin 2))
      (node (ref C4) (pin 1))
      (node (ref D7) (pin 1)))
    (net (code 10) (name GND)
      (node (ref C8) (pin 2))
      (node (ref D8) (pin 2))
      (node (ref D1) (pin 2))
      (node (ref C2) (pin 2))
      (node (ref D4) (pin 2))
      (node (ref D6) (pin 2))
      (node (ref C3) (pin 2))
      (node (ref C4) (pin 2))
      (node (ref D14) (pin 1))
      (node (ref D3) (pin 1))
      (node (ref J1) (pin 1))
      (node (ref D10) (pin 2))
      (node (ref D12) (pin 2))
      (node (ref C6) (pin 2))
      (node (ref C7) (pin 2)))))