M48
;DRILL file {KiCad (5.0.0-rc2-dev-603-g5a05135)} date Monday, 10 September 2018 00:46:25
;FORMAT={-:-/ absolute / metric / decimal}
FMAT,2
METRIC,TZ
T1C0.800
T2C0.900
T3C1.000
%
G90
G05
M71
T1
X132.095Y-84.226
X134.595Y-84.226
X120.65Y-94.742
X120.65Y-97.242
X131.445Y-88.432
X131.445Y-90.932
X118.11Y-80.177
X118.11Y-82.677
T2
X121.285Y-84.582
X128.905Y-84.582
X123.19Y-80.137
X130.81Y-80.137
X120.015Y-89.662
X127.635Y-89.662
X113.665Y-97.155
X116.205Y-97.155
X115.57Y-85.852
X115.57Y-93.472
X124.46Y-95.377
X132.08Y-95.377
X135.89Y-87.757
X135.89Y-95.377
T3
X138.049Y-81.026
X138.049Y-83.566
T0
M30
